AH00558: apache2: Could not reliably determine the server's fully qualified domain name, using 172.17.0.2. Set the 'ServerName' directive globally to suppress this message
[Mon Nov 16 13:38:22.759332 2015] [mpm_prefork:notice] [pid 1] AH00163: Apache/2.4.10 (Debian) PHP/5.6.15 configured -- resuming normal operations
[Mon Nov 16 13:38:22.759675 2015] [core:notice] [pid 1] AH00094: Command line: 'apache2 -D FOREGROUND'
[Mon Nov 16 13:38:51.586353 2015] [core:alert] [pid 8] [client 192.168.33.1:61902] /var/www/html/.htaccess: Invalid command 'RewriteEngine', perhaps misspelled or defined by a module not included in the server configuration
[Mon Nov 16 13:38:52.052504 2015] [core:alert] [pid 9] [client 192.168.33.1:61901] /var/www/html/.htaccess: Invalid command 'RewriteEngine', perhaps misspelled or defined by a module not included in the server configuration, referer: http://192.168.33.10/
[Mon Nov 16 13:38:52.257368 2015] [core:alert] [pid 10] [client 192.168.33.1:61945] /var/www/html/.htaccess: Invalid command 'RewriteEngine', perhaps misspelled or defined by a module not included in the server configuration, referer: http://192.168.33.10/
[Mon Nov 16 13:38:52.920045 2015] [core:alert] [pid 7] [client 192.168.33.1:61946] /var/www/html/.htaccess: Invalid command 'RewriteEngine', perhaps misspelled or defined by a module not included in the server configuration, referer: http://192.168.33.10/
[Mon Nov 16 13:38:52.927706 2015] [core:alert] [pid 11] [client 192.168.33.1:61947] /var/www/html/.htaccess: Invalid command 'RewriteEngine', perhaps misspelled or defined by a module not included in the server configuration, referer: http://192.168.33.10/
[Mon Nov 16 14:11:27.855276 2015] [core:alert] [pid 9] [client 192.168.33.1:53611] /var/www/html/.htaccess: Invalid command 'RewriteEngine', perhaps misspelled or defined by a module not included in the server configuration
[Mon Nov 16 14:11:28.240603 2015] [core:alert] [pid 10] [client 192.168.33.1:53612] /var/www/html/.htaccess: Invalid command 'RewriteEngine', perhaps misspelled or defined by a module not included in the server configuration, referer: http://192.168.33.10/
[Mon Nov 16 14:11:28.303611 2015] [core:alert] [pid 12] [client 192.168.33.1:53613] /var/www/html/.htaccess: Invalid command 'RewriteEngine', perhaps misspelled or defined by a module not included in the server configuration, referer: http://192.168.33.10/
[Mon Nov 16 14:11:29.148906 2015] [core:alert] [pid 7] [client 192.168.33.1:53614] /var/www/html/.htaccess: Invalid command 'RewriteEngine', perhaps misspelled or defined by a module not included in the server configuration, referer: http://192.168.33.10/
[Mon Nov 16 14:11:29.154181 2015] [core:alert] [pid 11] [client 192.168.33.1:53693] /var/www/html/.htaccess: Invalid command 'RewriteEngine', perhaps misspelled or defined by a module not included in the server configuration, referer: http://192.168.33.10/
[Mon Nov 16 14:11:36.821504 2015] [core:alert] [pid 8] [client 192.168.33.1:53723] /var/www/html/.htaccess: Invalid command 'RewriteEngine', perhaps misspelled or defined by a module not included in the server configuration
[Mon Nov 16 14:11:36.990812 2015] [core:alert] [pid 9] [client 192.168.33.1:53724] /var/www/html/.htaccess: Invalid command 'RewriteEngine', perhaps misspelled or defined by a module not included in the server configuration, referer: http://192.168.33.10/
[Mon Nov 16 14:11:37.055580 2015] [core:alert] [pid 10] [client 192.168.33.1:53725] /var/www/html/.htaccess: Invalid command 'RewriteEngine', perhaps misspelled or defined by a module not included in the server configuration, referer: http://192.168.33.10/
[Mon Nov 16 14:11:37.746919 2015] [core:alert] [pid 12] [client 192.168.33.1:53726] /var/www/html/.htaccess: Invalid command 'RewriteEngine', perhaps misspelled or defined by a module not included in the server configuration, referer: http://192.168.33.10/
[Mon Nov 16 14:11:37.750683 2015] [core:alert] [pid 7] [client 192.168.33.1:53727] /var/www/html/.htaccess: Invalid command 'RewriteEngine', perhaps misspelled or defined by a module not included in the server configuration, referer: http://192.168.33.10/
[Mon Nov 16 14:16:02.433235 2015] [mpm_prefork:notice] [pid 1] AH00169: caught SIGTERM, shutting down
AH00558: apache2: Could not reliably determine the server's fully qualified domain name, using 172.17.0.2. Set the 'ServerName' directive globally to suppress this message
[Mon Nov 16 14:17:19.326988 2015] [mpm_prefork:notice] [pid 1] AH00163: Apache/2.4.10 (Debian) PHP/5.6.15 configured -- resuming normal operations
[Mon Nov 16 14:17:19.327380 2015] [core:notice] [pid 1] AH00094: Command line: 'apache2 -D FOREGROUND'
[Mon Nov 16 14:43:09.169732 2015] [mpm_prefork:notice] [pid 1] AH00169: caught SIGTERM, shutting down
AH00558: apache2: Could not reliably determine the server's fully qualified domain name, using 172.17.0.2. Set the 'ServerName' directive globally to suppress this message
[Mon Nov 16 14:58:34.171233 2015] [mpm_prefork:notice] [pid 1] AH00163: Apache/2.4.10 (Debian) PHP/5.6.15 configured -- resuming normal operations
[Mon Nov 16 14:58:34.171552 2015] [core:notice] [pid 1] AH00094: Command line: 'apache2 -D FOREGROUND'
[Mon Nov 16 15:03:41.654820 2015] [mpm_prefork:notice] [pid 1] AH00169: caught SIGTERM, shutting down
AH00558: apache2: Could not reliably determine the server's fully qualified domain name, using 172.17.0.2. Set the 'ServerName' directive globally to suppress this message
[Mon Nov 16 15:30:48.443536 2015] [mpm_prefork:notice] [pid 1] AH00163: Apache/2.4.10 (Debian) PHP/5.6.15 configured -- resuming normal operations
[Mon Nov 16 15:30:48.443859 2015] [core:notice] [pid 1] AH00094: Command line: 'apache2 -D FOREGROUND'
[Mon Nov 16 15:31:09.808613 2015] [core:alert] [pid 7] [client 192.168.33.1:59199] /var/www/html/.htaccess: Invalid command 'RewriteEngine', perhaps misspelled or defined by a module not included in the server configuration
[Mon Nov 16 15:31:10.094060 2015] [core:alert] [pid 8] [client 192.168.33.1:59200] /var/www/html/.htaccess: Invalid command 'RewriteEngine', perhaps misspelled or defined by a module not included in the server configuration, referer: http://192.168.33.10/login
[Mon Nov 16 15:31:12.910529 2015] [core:alert] [pid 9] [client 192.168.33.1:59195] /var/www/html/.htaccess: Invalid command 'RewriteEngine', perhaps misspelled or defined by a module not included in the server configuration, referer: http://192.168.33.10/login
[Mon Nov 16 15:31:12.934150 2015] [core:alert] [pid 10] [client 192.168.33.1:59196] /var/www/html/.htaccess: Invalid command 'RewriteEngine', perhaps misspelled or defined by a module not included in the server configuration, referer: http://192.168.33.10/login
[Mon Nov 16 15:31:12.941115 2015] [core:alert] [pid 11] [client 192.168.33.1:59197] /var/www/html/.htaccess: Invalid command 'RewriteEngine', perhaps misspelled or defined by a module not included in the server configuration, referer: http://192.168.33.10/login
[Mon Nov 16 16:09:32.768863 2015] [mpm_prefork:notice] [pid 1] AH00169: caught SIGTERM, shutting down
[Mon Nov 16 16:17:02.481975 2015] [mpm_prefork:notice] [pid 22] AH00163: Apache/2.4.10 (Debian) PHP/5.6.15 configured -- resuming normal operations
[Mon Nov 16 16:17:02.491087 2015] [core:notice] [pid 22] AH00094: Command line: '/usr/sbin/apache2'
AH00558: apache2: Could not reliably determine the server's fully qualified domain name, using 172.17.0.2. Set the 'ServerName' directive globally to suppress this message
[Mon Nov 16 16:26:19.592532 2015] [mpm_prefork:notice] [pid 1] AH00163: Apache/2.4.10 (Debian) PHP/5.6.15 configured -- resuming normal operations
[Mon Nov 16 16:26:19.592554 2015] [core:notice] [pid 1] AH00094: Command line: 'apache2 -D FOREGROUND'
[Mon Nov 16 16:26:48.672651 2015] [core:alert] [pid 8] [client 192.168.33.1:57219] /var/www/html/.htaccess: Invalid command 'RewriteEngine', perhaps misspelled or defined by a module not included in the server configuration
[Mon Nov 16 16:26:48.936356 2015] [core:alert] [pid 9] [client 192.168.33.1:57220] /var/www/html/.htaccess: Invalid command 'RewriteEngine', perhaps misspelled or defined by a module not included in the server configuration, referer: http://192.168.33.10/login
[Mon Nov 16 16:26:48.971527 2015] [core:alert] [pid 9] [client 192.168.33.1:57221] /var/www/html/.htaccess: Invalid command 'RewriteEngine', perhaps misspelled or defined by a module not included in the server configuration, referer: http://192.168.33.10/login
[Mon Nov 16 16:26:49.901123 2015] [core:alert] [pid 11] [client 192.168.33.1:57223] /var/www/html/.htaccess: Invalid command 'RewriteEngine', perhaps misspelled or defined by a module not included in the server configuration, referer: http://192.168.33.10/login
[Mon Nov 16 16:26:49.979555 2015] [core:alert] [pid 10] [client 192.168.33.1:57224] /var/www/html/.htaccess: Invalid command 'RewriteEngine', perhaps misspelled or defined by a module not included in the server configuration, referer: http://192.168.33.10/login
[Mon Nov 16 16:26:50.490510 2015] [core:alert] [pid 8] [client 192.168.33.1:57230] /var/www/html/.htaccess: Invalid command 'RewriteEngine', perhaps misspelled or defined by a module not included in the server configuration
[Mon Nov 16 16:26:50.761806 2015] [core:alert] [pid 7] [client 192.168.33.1:57231] /var/www/html/.htaccess: Invalid command 'RewriteEngine', perhaps misspelled or defined by a module not included in the server configuration, referer: http://192.168.33.10/login
[Mon Nov 16 16:26:50.917420 2015] [core:alert] [pid 7] [client 192.168.33.1:57232] /var/www/html/.htaccess: Invalid command 'RewriteEngine', perhaps misspelled or defined by a module not included in the server configuration, referer: http://192.168.33.10/login
[Mon Nov 16 16:26:51.498033 2015] [core:alert] [pid 11] [client 192.168.33.1:57233] /var/www/html/.htaccess: Invalid command 'RewriteEngine', perhaps misspelled or defined by a module not included in the server configuration, referer: http://192.168.33.10/login
[Mon Nov 16 16:26:51.507825 2015] [core:alert] [pid 10] [client 192.168.33.1:57238] /var/www/html/.htaccess: Invalid command 'RewriteEngine', perhaps misspelled or defined by a module not included in the server configuration, referer: http://192.168.33.10/login
[Mon Nov 16 16:27:59.598162 2015] [core:alert] [pid 8] [client 192.168.33.1:57503] /var/www/html/.htaccess: Invalid command 'RewriteEngine', perhaps misspelled or defined by a module not included in the server configuration
[Mon Nov 16 16:27:59.757579 2015] [core:alert] [pid 9] [client 192.168.33.1:57501] /var/www/html/.htaccess: Invalid command 'RewriteEngine', perhaps misspelled or defined by a module not included in the server configuration, referer: http://192.168.33.10/login
[Mon Nov 16 16:27:59.864527 2015] [core:alert] [pid 7] [client 192.168.33.1:57502] /var/www/html/.htaccess: Invalid command 'RewriteEngine', perhaps misspelled or defined by a module not included in the server configuration, referer: http://192.168.33.10/login
[Mon Nov 16 16:28:00.456624 2015] [core:alert] [pid 12] [client 192.168.33.1:57500] /var/www/html/.htaccess: Invalid command 'RewriteEngine', perhaps misspelled or defined by a module not included in the server configuration, referer: http://192.168.33.10/login
[Mon Nov 16 16:28:00.474453 2015] [core:alert] [pid 11] [client 192.168.33.1:57536] /var/www/html/.htaccess: Invalid command 'RewriteEngine', perhaps misspelled or defined by a module not included in the server configuration, referer: http://192.168.33.10/login
[Mon Nov 16 16:28:36.472767 2015] [core:alert] [pid 10] [client 192.168.33.1:57663] /var/www/html/.htaccess: Invalid command 'RewriteEngine', perhaps misspelled or defined by a module not included in the server configuration
[Mon Nov 16 16:28:36.653455 2015] [core:alert] [pid 9] [client 192.168.33.1:57664] /var/www/html/.htaccess: Invalid command 'RewriteEngine', perhaps misspelled or defined by a module not included in the server configuration, referer: http://192.168.33.10/login
[Mon Nov 16 16:28:36.731975 2015] [core:alert] [pid 8] [client 192.168.33.1:57665] /var/www/html/.htaccess: Invalid command 'RewriteEngine', perhaps misspelled or defined by a module not included in the server configuration, referer: http://192.168.33.10/login
[Mon Nov 16 16:28:37.407770 2015] [core:alert] [pid 7] [client 192.168.33.1:57666] /var/www/html/.htaccess: Invalid command 'RewriteEngine', perhaps misspelled or defined by a module not included in the server configuration, referer: http://192.168.33.10/login
[Mon Nov 16 16:28:37.412741 2015] [core:alert] [pid 12] [client 192.168.33.1:57667] /var/www/html/.htaccess: Invalid command 'RewriteEngine', perhaps misspelled or defined by a module not included in the server configuration, referer: http://192.168.33.10/login
[Mon Nov 16 16:28:55.199782 2015] [core:alert] [pid 11] [client 192.168.33.1:57679] /var/www/html/.htaccess: Invalid command 'RewriteEngine', perhaps misspelled or defined by a module not included in the server configuration
[Mon Nov 16 16:28:55.551068 2015] [core:alert] [pid 10] [client 192.168.33.1:57680] /var/www/html/.htaccess: Invalid command 'RewriteEngine', perhaps misspelled or defined by a module not included in the server configuration, referer: http://192.168.33.10/
[Mon Nov 16 16:28:55.760950 2015] [core:alert] [pid 9] [client 192.168.33.1:57681] /var/www/html/.htaccess: Invalid command 'RewriteEngine', perhaps misspelled or defined by a module not included in the server configuration, referer: http://192.168.33.10/
[Mon Nov 16 16:28:56.543798 2015] [core:alert] [pid 8] [client 192.168.33.1:57682] /var/www/html/.htaccess: Invalid command 'RewriteEngine', perhaps misspelled or defined by a module not included in the server configuration, referer: http://192.168.33.10/
[Mon Nov 16 16:28:56.549737 2015] [core:alert] [pid 7] [client 192.168.33.1:57683] /var/www/html/.htaccess: Invalid command 'RewriteEngine', perhaps misspelled or defined by a module not included in the server configuration, referer: http://192.168.33.10/
[Mon Nov 16 16:29:15.812389 2015] [mpm_prefork:notice] [pid 1] AH00169: caught SIGTERM, shutting down
AH00558: apache2: Could not reliably determine the server's fully qualified domain name, using 172.17.0.2. Set the 'ServerName' directive globally to suppress this message
[Mon Nov 16 16:30:07.457787 2015] [mpm_prefork:notice] [pid 1] AH00163: Apache/2.4.10 (Debian) PHP/5.6.15 configured -- resuming normal operations
[Mon Nov 16 16:30:07.463134 2015] [core:notice] [pid 1] AH00094: Command line: 'apache2 -D FOREGROUND'
[Mon Nov 16 16:35:37.835857 2015] [mpm_prefork:notice] [pid 1] AH00169: caught SIGTERM, shutting down
AH00558: apache2: Could not reliably determine the server's fully qualified domain name, using 172.17.0.2. Set the 'ServerName' directive globally to suppress this message
[Mon Nov 16 16:39:04.332709 2015] [mpm_prefork:notice] [pid 1] AH00163: Apache/2.4.10 (Debian) PHP/5.6.15 configured -- resuming normal operations
[Mon Nov 16 16:39:04.333054 2015] [core:notice] [pid 1] AH00094: Command line: 'apache2 -D FOREGROUND'
[Mon Nov 16 16:39:23.769772 2015] [core:alert] [pid 6] [client 192.168.33.1:60459] /var/www/html/.htaccess: Invalid command 'RewriteEngine', perhaps misspelled or defined by a module not included in the server configuration
[Mon Nov 16 16:39:23.934685 2015] [core:alert] [pid 7] [client 192.168.33.1:60456] /var/www/html/.htaccess: Invalid command 'RewriteEngine', perhaps misspelled or defined by a module not included in the server configuration, referer: http://192.168.33.10/
[Mon Nov 16 16:39:24.075941 2015] [core:alert] [pid 8] [client 192.168.33.1:60457] /var/www/html/.htaccess: Invalid command 'RewriteEngine', perhaps misspelled or defined by a module not included in the server configuration, referer: http://192.168.33.10/
[Mon Nov 16 16:39:24.602199 2015] [core:alert] [pid 9] [client 192.168.33.1:60458] /var/www/html/.htaccess: Invalid command 'RewriteEngine', perhaps misspelled or defined by a module not included in the server configuration, referer: http://192.168.33.10/
[Mon Nov 16 16:39:24.696624 2015] [core:alert] [pid 10] [client 192.168.33.1:60501] /var/www/html/.htaccess: Invalid command 'RewriteEngine', perhaps misspelled or defined by a module not included in the server configuration, referer: http://192.168.33.10/
[Mon Nov 16 16:43:16.388660 2015] [core:alert] [pid 6] [client 192.168.33.1:61390] /var/www/html/.htaccess: Invalid command 'RewriteEngine', perhaps misspelled or defined by a module not included in the server configuration
[Mon Nov 16 16:43:17.789889 2015] [core:alert] [pid 7] [client 192.168.33.1:61386] /var/www/html/.htaccess: Invalid command 'RewriteEngine', perhaps misspelled or defined by a module not included in the server configuration, referer: http://192.168.33.10/
[Mon Nov 16 16:43:17.798608 2015] [core:alert] [pid 8] [client 192.168.33.1:61387] /var/www/html/.htaccess: Invalid command 'RewriteEngine', perhaps misspelled or defined by a module not included in the server configuration, referer: http://192.168.33.10/
[Mon Nov 16 16:43:17.803498 2015] [core:alert] [pid 9] [client 192.168.33.1:61388] /var/www/html/.htaccess: Invalid command 'RewriteEngine', perhaps misspelled or defined by a module not included in the server configuration, referer: http://192.168.33.10/
[Mon Nov 16 16:43:17.808493 2015] [core:alert] [pid 10] [client 192.168.33.1:61389] /var/www/html/.htaccess: Invalid command 'RewriteEngine', perhaps misspelled or defined by a module not included in the server configuration, referer: http://192.168.33.10/
[Mon Nov 16 16:44:12.283909 2015] [mpm_prefork:notice] [pid 1] AH00169: caught SIGTERM, shutting down
AH00558: apache2: Could not reliably determine the server's fully qualified domain name, using 172.17.0.2. Set the 'ServerName' directive globally to suppress this message
[Mon Nov 16 16:48:10.693796 2015] [mpm_prefork:notice] [pid 1] AH00163: Apache/2.4.10 (Debian) PHP/5.6.15 configured -- resuming normal operations
[Mon Nov 16 16:48:10.732594 2015] [core:alert] [pid 7] [client 192.168.33.1:62636] /var/www/html/.htaccess: Invalid command 'RewriteEngine', perhaps misspelled or defined by a module not included in the server configuration
[Mon Nov 16 16:48:10.733294 2015] [core:notice] [pid 1] AH00094: Command line: 'apache2 -D FOREGROUND'
[Mon Nov 16 16:48:11.417674 2015] [core:alert] [pid 8] [client 192.168.33.1:62650] /var/www/html/.htaccess: Invalid command 'RewriteEngine', perhaps misspelled or defined by a module not included in the server configuration, referer: http://192.168.33.10/
[Mon Nov 16 16:48:11.526816 2015] [core:alert] [pid 10] [client 192.168.33.1:62651] /var/www/html/.htaccess: Invalid command 'RewriteEngine', perhaps misspelled or defined by a module not included in the server configuration, referer: http://192.168.33.10/
[Mon Nov 16 16:48:11.534516 2015] [core:alert] [pid 11] [client 192.168.33.1:62652] /var/www/html/.htaccess: Invalid command 'RewriteEngine', perhaps misspelled or defined by a module not included in the server configuration, referer: http://192.168.33.10/
[Mon Nov 16 16:48:12.161274 2015] [core:alert] [pid 9] [client 192.168.33.1:62653] /var/www/html/.htaccess: Invalid command 'RewriteEngine', perhaps misspelled or defined by a module not included in the server configuration, referer: http://192.168.33.10/
[Mon Nov 16 16:48:17.446492 2015] [core:alert] [pid 7] [client 192.168.33.1:62635] /var/www/html/.htaccess: Invalid command 'RewriteEngine', perhaps misspelled or defined by a module not included in the server configuration
[Mon Nov 16 16:48:17.617755 2015] [core:alert] [pid 8] [client 192.168.33.1:62684] /var/www/html/.htaccess: Invalid command 'RewriteEngine', perhaps misspelled or defined by a module not included in the server configuration, referer: http://192.168.33.10/
[Mon Nov 16 16:48:17.728213 2015] [core:alert] [pid 11] [client 192.168.33.1:62685] /var/www/html/.htaccess: Invalid command 'RewriteEngine', perhaps misspelled or defined by a module not included in the server configuration, referer: http://192.168.33.10/
[Mon Nov 16 16:48:18.334147 2015] [core:alert] [pid 10] [client 192.168.33.1:62686] /var/www/html/.htaccess: Invalid command 'RewriteEngine', perhaps misspelled or defined by a module not included in the server configuration, referer: http://192.168.33.10/
[Mon Nov 16 16:48:18.342969 2015] [core:alert] [pid 9] [client 192.168.33.1:62687] /var/www/html/.htaccess: Invalid command 'RewriteEngine', perhaps misspelled or defined by a module not included in the server configuration, referer: http://192.168.33.10/
[Mon Nov 16 16:48:22.081751 2015] [core:alert] [pid 7] [client 192.168.33.1:62706] /var/www/html/.htaccess: Invalid command 'RewriteEngine', perhaps misspelled or defined by a module not included in the server configuration
[Mon Nov 16 16:48:22.322298 2015] [core:alert] [pid 8] [client 192.168.33.1:62707] /var/www/html/.htaccess: Invalid command 'RewriteEngine', perhaps misspelled or defined by a module not included in the server configuration, referer: http://192.168.33.10/
[Mon Nov 16 16:48:22.393091 2015] [core:alert] [pid 11] [client 192.168.33.1:62708] /var/www/html/.htaccess: Invalid command 'RewriteEngine', perhaps misspelled or defined by a module not included in the server configuration, referer: http://192.168.33.10/
[Mon Nov 16 16:48:22.901221 2015] [core:alert] [pid 10] [client 192.168.33.1:62709] /var/www/html/.htaccess: Invalid command 'RewriteEngine', perhaps misspelled or defined by a module not included in the server configuration, referer: http://192.168.33.10/
[Mon Nov 16 16:48:22.906555 2015] [core:alert] [pid 10] [client 192.168.33.1:62710] /var/www/html/.htaccess: Invalid command 'RewriteEngine', perhaps misspelled or defined by a module not included in the server configuration, referer: http://192.168.33.10/
[Mon Nov 16 17:05:38.479332 2015] [mpm_prefork:notice] [pid 1] AH00169: caught SIGTERM, shutting down
AH00558: apache2: Could not reliably determine the server's fully qualified domain name, using 172.17.0.2. Set the 'ServerName' directive globally to suppress this message
[Tue Nov 17 15:09:33.195619 2015] [mpm_prefork:notice] [pid 1] AH00163: Apache/2.4.10 (Debian) PHP/5.6.15 configured -- resuming normal operations
[Tue Nov 17 15:09:33.195931 2015] [core:notice] [pid 1] AH00094: Command line: 'apache2 -D FOREGROUND'
[Tue Nov 17 15:10:42.271610 2015] [mpm_prefork:notice] [pid 1] AH00169: caught SIGTERM, shutting down
AH00112: Warning: DocumentRoot [/var/www/laravel-app/public] does not exist
AH00558: apache2: Could not reliably determine the server's fully qualified domain name, using 172.17.0.2. Set the 'ServerName' directive globally to suppress this message
[Tue Nov 17 16:06:43.695835 2015] [mpm_prefork:notice] [pid 1] AH00163: Apache/2.4.10 (Debian) PHP/5.6.15 configured -- resuming normal operations
[Tue Nov 17 16:06:43.696191 2015] [core:notice] [pid 1] AH00094: Command line: 'apache2 -D FOREGROUND'
[Tue Nov 17 16:07:44.431871 2015] [mpm_prefork:notice] [pid 1] AH00169: caught SIGTERM, shutting down
AH00112: Warning: DocumentRoot [/var/www/laravel-app/public] does not exist
AH00558: apache2: Could not reliably determine the server's fully qualified domain name, using 172.17.0.2. Set the 'ServerName' directive globally to suppress this message
[Tue Nov 17 16:08:39.921643 2015] [mpm_prefork:notice] [pid 1] AH00163: Apache/2.4.10 (Debian) PHP/5.6.15 configured -- resuming normal operations
[Tue Nov 17 16:08:39.929508 2015] [core:notice] [pid 1] AH00094: Command line: 'apache2 -D FOREGROUND'
[Tue Nov 17 16:09:28.039399 2015] [mpm_prefork:notice] [pid 1] AH00169: caught SIGTERM, shutting down
AH00558: apache2: Could not reliably determine the server's fully qualified domain name, using 172.17.0.2. Set the 'ServerName' directive globally to suppress this message
[Tue Nov 17 16:10:41.617226 2015] [mpm_prefork:notice] [pid 1] AH00163: Apache/2.4.10 (Debian) PHP/5.6.15 configured -- resuming normal operations
[Tue Nov 17 16:10:41.617543 2015] [core:notice] [pid 1] AH00094: Command line: 'apache2 -D FOREGROUND'
[Tue Nov 17 16:11:30.873358 2015] [core:alert] [pid 7] [client 192.168.33.1:62479] /var/www/html/.htaccess: Invalid command 'RewriteEngine', perhaps misspelled or defined by a module not included in the server configuration
[Tue Nov 17 16:12:24.921586 2015] [mpm_prefork:notice] [pid 1] AH00169: caught SIGTERM, shutting down
AH00558: apache2: Could not reliably determine the server's fully qualified domain name, using 172.17.0.2. Set the 'ServerName' directive globally to suppress this message
[Tue Nov 17 23:52:07.623231 2015] [mpm_prefork:notice] [pid 1] AH00163: Apache/2.4.10 (Debian) PHP/5.6.15 configured -- resuming normal operations
[Tue Nov 17 23:52:07.623566 2015] [core:notice] [pid 1] AH00094: Command line: 'apache2 -D FOREGROUND'
[Tue Nov 17 23:53:13.318329 2015] [core:alert] [pid 8] [client 192.168.33.1:62945] /var/www/html/.htaccess: Invalid command 'RewriteEngine', perhaps misspelled or defined by a module not included in the server configuration
[Tue Nov 17 23:53:13.660640 2015] [core:alert] [pid 7] [client 192.168.33.1:62944] /var/www/html/.htaccess: Invalid command 'RewriteEngine', perhaps misspelled or defined by a module not included in the server configuration, referer: http://192.168.33.10/
[Tue Nov 17 23:53:13.800790 2015] [core:alert] [pid 9] [client 192.168.33.1:62962] /var/www/html/.htaccess: Invalid command 'RewriteEngine', perhaps misspelled or defined by a module not included in the server configuration, referer: http://192.168.33.10/
[Tue Nov 17 23:53:14.481748 2015] [core:alert] [pid 10] [client 192.168.33.1:62963] /var/www/html/.htaccess: Invalid command 'RewriteEngine', perhaps misspelled or defined by a module not included in the server configuration, referer: http://192.168.33.10/
[Tue Nov 17 23:53:14.523612 2015] [core:alert] [pid 11] [client 192.168.33.1:62964] /var/www/html/.htaccess: Invalid command 'RewriteEngine', perhaps misspelled or defined by a module not included in the server configuration, referer: http://192.168.33.10/
[Tue Nov 17 23:58:32.569887 2015] [mpm_prefork:notice] [pid 1] AH00169: caught SIGTERM, shutting down
AH00558: apache2: Could not reliably determine the server's fully qualified domain name, using 172.17.0.2. Set the 'ServerName' directive globally to suppress this message
[Tue Nov 17 23:59:20.482638 2015] [mpm_prefork:notice] [pid 1] AH00163: Apache/2.4.10 (Debian) PHP/5.6.15 configured -- resuming normal operations
[Tue Nov 17 23:59:20.482997 2015] [core:notice] [pid 1] AH00094: Command line: 'apache2 -D FOREGROUND'
[Tue Nov 17 23:59:25.946938 2015] [mpm_prefork:notice] [pid 1] AH00169: caught SIGTERM, shutting down
[Wed Nov 18 00:01:31.480332 2015] [mpm_prefork:notice] [pid 30] AH00163: Apache/2.4.10 (Debian) PHP/5.6.15 configured -- resuming normal operations
[Wed Nov 18 00:01:31.480760 2015] [core:notice] [pid 30] AH00094: Command line: '/usr/sbin/apache2'
[Wed Nov 18 00:03:00.193932 2015] [mpm_prefork:notice] [pid 31] AH00163: Apache/2.4.10 (Debian) PHP/5.6.15 configured -- resuming normal operations
[Wed Nov 18 00:03:00.194372 2015] [core:notice] [pid 31] AH00094: Command line: '/usr/sbin/apache2'
[Wed Nov 18 00:03:02.206656 2015] [core:warn] [pid 28] AH00098: pid file /var/run/apache2/apache2.pid overwritten -- Unclean shutdown of previous Apache run?
[Wed Nov 18 00:03:02.215778 2015] [mpm_prefork:notice] [pid 28] AH00163: Apache/2.4.10 (Debian) PHP/5.6.15 configured -- resuming normal operations
[Wed Nov 18 00:03:02.215886 2015] [core:notice] [pid 28] AH00094: Command line: '/usr/sbin/apache2'
[Wed Nov 18 00:04:48.155543 2015] [core:warn] [pid 30] AH00098: pid file /var/run/apache2/apache2.pid overwritten -- Unclean shutdown of previous Apache run?
[Wed Nov 18 00:04:48.164128 2015] [mpm_prefork:notice] [pid 30] AH00163: Apache/2.4.10 (Debian) PHP/5.6.15 configured -- resuming normal operations
[Wed Nov 18 00:04:48.164371 2015] [core:notice] [pid 30] AH00094: Command line: '/usr/sbin/apache2'
[Wed Nov 18 00:05:40.926085 2015] [core:warn] [pid 28] AH00098: pid file /var/run/apache2/apache2.pid overwritten -- Unclean shutdown of previous Apache run?
[Wed Nov 18 00:05:40.931276 2015] [mpm_prefork:notice] [pid 28] AH00163: Apache/2.4.10 (Debian) PHP/5.6.15 configured -- resuming normal operations
[Wed Nov 18 00:05:40.937049 2015] [core:notice] [pid 28] AH00094: Command line: '/usr/sbin/apache2'
[Wed Nov 18 00:07:28.416831 2015] [mpm_prefork:notice] [pid 31] AH00163: Apache/2.4.10 (Debian) PHP/5.6.15 configured -- resuming normal operations
[Wed Nov 18 00:07:28.417267 2015] [core:notice] [pid 31] AH00094: Command line: '/usr/sbin/apache2'
[Wed Nov 18 00:08:33.710646 2015] [core:warn] [pid 28] AH00098: pid file /var/run/apache2/apache2.pid overwritten -- Unclean shutdown of previous Apache run?
[Wed Nov 18 00:08:33.738078 2015] [mpm_prefork:notice] [pid 28] AH00163: Apache/2.4.10 (Debian) PHP/5.6.15 configured -- resuming normal operations
[Wed Nov 18 00:08:33.738349 2015] [core:notice] [pid 28] AH00094: Command line: '/usr/sbin/apache2'
AH00558: apache2: Could not reliably determine the server's fully qualified domain name, using 172.17.0.2. Set the 'ServerName' directive globally to suppress this message
[Wed Nov 18 00:09:43.777243 2015] [core:warn] [pid 19] AH00098: pid file /var/run/apache2/apache2.pid overwritten -- Unclean shutdown of previous Apache run?
[Wed Nov 18 00:09:43.786700 2015] [mpm_prefork:notice] [pid 19] AH00163: Apache/2.4.10 (Debian) PHP/5.6.15 configured -- resuming normal operations
[Wed Nov 18 00:09:43.786984 2015] [core:notice] [pid 19] AH00094: Command line: '/usr/sbin/apache2 -D FOREGROUND'
AH00558: apache2: Could not reliably determine the server's fully qualified domain name, using 172.17.0.2. Set the 'ServerName' directive globally to suppress this message
[Wed Nov 18 14:31:25.645648 2015] [core:warn] [pid 18] AH00098: pid file /var/run/apache2/apache2.pid overwritten -- Unclean shutdown of previous Apache run?
[Wed Nov 18 14:31:25.701708 2015] [mpm_prefork:notice] [pid 18] AH00163: Apache/2.4.10 (Debian) PHP/5.6.15 configured -- resuming normal operations
[Wed Nov 18 14:31:25.711258 2015] [core:notice] [pid 18] AH00094: Command line: '/usr/sbin/apache2 -D FOREGROUND'
AH00558: apache2: Could not reliably determine the server's fully qualified domain name, using 172.17.0.2. Set the 'ServerName' directive globally to suppress this message
[Wed Nov 18 14:33:32.776088 2015] [core:warn] [pid 21] AH00098: pid file /var/run/apache2/apache2.pid overwritten -- Unclean shutdown of previous Apache run?
[Wed Nov 18 14:33:32.794015 2015] [mpm_prefork:notice] [pid 21] AH00163: Apache/2.4.10 (Debian) PHP/5.6.15 configured -- resuming normal operations
[Wed Nov 18 14:33:32.798734 2015] [core:notice] [pid 21] AH00094: Command line: '/usr/sbin/apache2 -D FOREGROUND'
AH00558: apache2: Could not reliably determine the server's fully qualified domain name, using 172.17.0.2. Set the 'ServerName' directive globally to suppress this message
[Sat Nov 21 06:49:01.772414 2015] [mpm_prefork:notice] [pid 22] AH00163: Apache/2.4.10 (Debian) PHP/5.6.15 configured -- resuming normal operations
[Sat Nov 21 06:49:01.772741 2015] [core:notice] [pid 22] AH00094: Command line: '/usr/sbin/apache2 -D FOREGROUND'
AH00558: apache2: Could not reliably determine the server's fully qualified domain name, using 172.17.0.2. Set the 'ServerName' directive globally to suppress this message
[Sat Nov 21 15:37:20.410287 2015] [core:warn] [pid 18] AH00098: pid file /var/run/apache2/apache2.pid overwritten -- Unclean shutdown of previous Apache run?
[Sat Nov 21 15:37:20.414729 2015] [mpm_prefork:notice] [pid 18] AH00163: Apache/2.4.10 (Debian) PHP/5.6.15 configured -- resuming normal operations
[Sat Nov 21 15:37:20.415100 2015] [core:notice] [pid 18] AH00094: Command line: '/usr/sbin/apache2 -D FOREGROUND'
AH00558: apache2: Could not reliably determine the server's fully qualified domain name, using 172.17.0.2. Set the 'ServerName' directive globally to suppress this message
[Sat Nov 21 16:17:52.805822 2015] [mpm_prefork:notice] [pid 23] AH00163: Apache/2.4.10 (Debian) PHP/5.6.15 configured -- resuming normal operations
[Sat Nov 21 16:17:52.806189 2015] [core:notice] [pid 23] AH00094: Command line: '/usr/sbin/apache2 -D FOREGROUND'
AH00558: apache2: Could not reliably determine the server's fully qualified domain name, using 172.17.0.2. Set the 'ServerName' directive globally to suppress this message
[Sat Nov 21 16:21:42.555873 2015] [mpm_prefork:notice] [pid 22] AH00163: Apache/2.4.10 (Debian) PHP/5.6.15 configured -- resuming normal operations
[Sat Nov 21 16:21:42.556312 2015] [core:notice] [pid 22] AH00094: Command line: '/usr/sbin/apache2 -D FOREGROUND'
AH00558: apache2: Could not reliably determine the server's fully qualified domain name, using 172.17.0.2. Set the 'ServerName' directive globally to suppress this message
[Sat Nov 21 16:24:28.602951 2015] [mpm_prefork:notice] [pid 23] AH00163: Apache/2.4.10 (Debian) PHP/5.6.15 configured -- resuming normal operations
[Sat Nov 21 16:24:28.603154 2015] [core:notice] [pid 23] AH00094: Command line: '/usr/sbin/apache2 -D FOREGROUND'
AH00558: apache2: Could not reliably determine the server's fully qualified domain name, using 172.17.0.2. Set the 'ServerName' directive globally to suppress this message
[Sat Nov 21 16:34:40.127901 2015] [core:warn] [pid 18] AH00098: pid file /var/run/apache2/apache2.pid overwritten -- Unclean shutdown of previous Apache run?
[Sat Nov 21 16:34:40.136529 2015] [mpm_prefork:notice] [pid 18] AH00163: Apache/2.4.10 (Debian) PHP/5.6.15 configured -- resuming normal operations
[Sat Nov 21 16:34:40.148352 2015] [core:notice] [pid 18] AH00094: Command line: '/usr/sbin/apache2 -D FOREGROUND'
AH00558: apache2: Could not reliably determine the server's fully qualified domain name, using 172.17.0.2. Set the 'ServerName' directive globally to suppress this message
PHP Warning:  PHP Startup: Unable to load dynamic library '/usr/local/lib/php/extensions/no-debug-non-zts-20131226/php_mysql.dll' - /usr/local/lib/php/extensions/no-debug-non-zts-20131226/php_mysql.dll: cannot open shared object file: No such file or directory in Unknown on line 0
[Sat Nov 21 16:39:22.959482 2015] [mpm_prefork:notice] [pid 22] AH00163: Apache/2.4.10 (Debian) PHP/5.6.15 configured -- resuming normal operations
[Sat Nov 21 16:39:22.959775 2015] [core:notice] [pid 22] AH00094: Command line: '/usr/sbin/apache2 -D FOREGROUND'
AH00558: apache2: Could not reliably determine the server's fully qualified domain name, using 172.17.0.2. Set the 'ServerName' directive globally to suppress this message
PHP Warning:  PHP Startup: Unable to load dynamic library '/usr/local/lib/php/extensions/no-debug-non-zts-20131226/php_mysql.dll' - /usr/local/lib/php/extensions/no-debug-non-zts-20131226/php_mysql.dll: cannot open shared object file: No such file or directory in Unknown on line 0
[Sat Nov 21 16:43:27.531515 2015] [core:warn] [pid 18] AH00098: pid file /var/run/apache2/apache2.pid overwritten -- Unclean shutdown of previous Apache run?
[Sat Nov 21 16:43:27.536669 2015] [mpm_prefork:notice] [pid 18] AH00163: Apache/2.4.10 (Debian) PHP/5.6.15 configured -- resuming normal operations
[Sat Nov 21 16:43:27.540207 2015] [core:notice] [pid 18] AH00094: Command line: '/usr/sbin/apache2 -D FOREGROUND'
AH00558: apache2: Could not reliably determine the server's fully qualified domain name, using 172.17.0.2. Set the 'ServerName' directive globally to suppress this message
PHP Warning:  PHP Startup: Unable to load dynamic library '/usr/local/lib/php/extensions/no-debug-non-zts-20131226/php_mysql.dll' - /usr/local/lib/php/extensions/no-debug-non-zts-20131226/php_mysql.dll: cannot open shared object file: No such file or directory in Unknown on line 0
PHP Warning:  PHP Startup: Unable to load dynamic library '/usr/local/lib/php/extensions/no-debug-non-zts-20131226/mysqli.so' - /usr/local/lib/php/extensions/no-debug-non-zts-20131226/mysqli.so: cannot open shared object file: No such file or directory in Unknown on line 0
PHP Warning:  PHP Startup: Unable to load dynamic library '/usr/local/lib/php/extensions/no-debug-non-zts-20131226/mysql.so' - /usr/local/lib/php/extensions/no-debug-non-zts-20131226/mysql.so: cannot open shared object file: No such file or directory in Unknown on line 0
[Sat Nov 21 17:05:04.269300 2015] [core:warn] [pid 20] AH00098: pid file /var/run/apache2/apache2.pid overwritten -- Unclean shutdown of previous Apache run?
[Sat Nov 21 17:05:04.283899 2015] [mpm_prefork:notice] [pid 20] AH00163: Apache/2.4.10 (Debian) PHP/5.6.15 configured -- resuming normal operations
[Sat Nov 21 17:05:04.284271 2015] [core:notice] [pid 20] AH00094: Command line: '/usr/sbin/apache2 -D FOREGROUND'
AH00558: apache2: Could not reliably determine the server's fully qualified domain name, using 172.17.0.2. Set the 'ServerName' directive globally to suppress this message
PHP Warning:  PHP Startup: Unable to load dynamic library '/usr/lib/php/modules/curl.so' - /usr/lib/php/modules/curl.so: cannot open shared object file: No such file or directory in Unknown on line 0
PHP Warning:  PHP Startup: Unable to load dynamic library '/usr/lib/php/modules/gettext.so' - /usr/lib/php/modules/gettext.so: cannot open shared object file: No such file or directory in Unknown on line 0
PHP Warning:  PHP Startup: Unable to load dynamic library '/usr/lib/php/modules/mcrypt.so' - /usr/lib/php/modules/mcrypt.so: cannot open shared object file: No such file or directory in Unknown on line 0
PHP Warning:  PHP Startup: Unable to load dynamic library '/usr/lib/php/modules/mysqli.so' - /usr/lib/php/modules/mysqli.so: cannot open shared object file: No such file or directory in Unknown on line 0
PHP Warning:  PHP Startup: Unable to load dynamic library '/usr/lib/php/modules/mysql.so' - /usr/lib/php/modules/mysql.so: cannot open shared object file: No such file or directory in Unknown on line 0
PHP Warning:  PHP Startup: Unable to load dynamic library '/usr/lib/php/modules/pdo_mysql.so' - /usr/lib/php/modules/pdo_mysql.so: cannot open shared object file: No such file or directory in Unknown on line 0
[Sat Nov 21 17:14:51.386835 2015] [core:warn] [pid 18] AH00098: pid file /var/run/apache2/apache2.pid overwritten -- Unclean shutdown of previous Apache run?
[Sat Nov 21 17:14:51.392643 2015] [mpm_prefork:notice] [pid 18] AH00163: Apache/2.4.10 (Debian) PHP/5.6.15 configured -- resuming normal operations
[Sat Nov 21 17:14:51.524123 2015] [core:notice] [pid 18] AH00094: Command line: '/usr/sbin/apache2 -D FOREGROUND'
[Sat Nov 21 17:14:57.425448 2015] [:error] [pid 19] [client 192.168.33.1:57024] PHP Warning:  Unknown: open_basedir restriction in effect. File(/var/www/html/index.php) is not within the allowed path(s): (/srv/http/:/home/:/tmp/:/usr/share/pear/:/usr/share/webapps/:/etc/webapps/) in Unknown on line 0
[Sat Nov 21 17:14:57.425650 2015] [:error] [pid 19] [client 192.168.33.1:57024] PHP Warning:  Unknown: failed to open stream: Operation not permitted in Unknown on line 0
[Sat Nov 21 17:14:57.425766 2015] [:error] [pid 19] [client 192.168.33.1:57024] PHP Fatal error:  Unknown: Failed opening required '/var/www/html/index.php' (include_path='.:/usr/share/pear') in Unknown on line 0
[Sat Nov 21 17:15:03.850735 2015] [:error] [pid 20] [client 192.168.33.1:57020] PHP Warning:  Unknown: open_basedir restriction in effect. File(/var/www/html/index.php) is not within the allowed path(s): (/srv/http/:/home/:/tmp/:/usr/share/pear/:/usr/share/webapps/:/etc/webapps/) in Unknown on line 0
[Sat Nov 21 17:15:03.853974 2015] [:error] [pid 20] [client 192.168.33.1:57020] PHP Warning:  Unknown: failed to open stream: Operation not permitted in Unknown on line 0
[Sat Nov 21 17:15:03.854124 2015] [:error] [pid 20] [client 192.168.33.1:57020] PHP Fatal error:  Unknown: Failed opening required '/var/www/html/index.php' (include_path='.:/usr/share/pear') in Unknown on line 0
[Sat Nov 21 17:15:17.917357 2015] [:error] [pid 19] [client 192.168.33.1:57147] PHP Warning:  Unknown: open_basedir restriction in effect. File(/var/www/html/info.php) is not within the allowed path(s): (/srv/http/:/home/:/tmp/:/usr/share/pear/:/usr/share/webapps/:/etc/webapps/) in Unknown on line 0
[Sat Nov 21 17:15:17.917511 2015] [:error] [pid 19] [client 192.168.33.1:57147] PHP Warning:  Unknown: failed to open stream: Operation not permitted in Unknown on line 0
[Sat Nov 21 17:15:17.917620 2015] [:error] [pid 19] [client 192.168.33.1:57147] PHP Fatal error:  Unknown: Failed opening required '/var/www/html/info.php' (include_path='.:/usr/share/pear') in Unknown on line 0
[Sat Nov 21 17:15:28.044692 2015] [:error] [pid 23] [client 192.168.33.1:57207] PHP Warning:  Unknown: open_basedir restriction in effect. File(/var/www/html/info.php) is not within the allowed path(s): (/srv/http/:/home/:/tmp/:/usr/share/pear/:/usr/share/webapps/:/etc/webapps/) in Unknown on line 0
[Sat Nov 21 17:15:28.044964 2015] [:error] [pid 23] [client 192.168.33.1:57207] PHP Warning:  Unknown: failed to open stream: Operation not permitted in Unknown on line 0
[Sat Nov 21 17:15:28.045100 2015] [:error] [pid 23] [client 192.168.33.1:57207] PHP Fatal error:  Unknown: Failed opening required '/var/www/html/info.php' (include_path='.:/usr/share/pear') in Unknown on line 0
[Sat Nov 21 17:16:04.822744 2015] [:error] [pid 22] [client 192.168.33.1:57430] PHP Warning:  Unknown: open_basedir restriction in effect. File(/var/www/html/info.php) is not within the allowed path(s): (/srv/http/:/home/:/tmp/:/usr/share/pear/:/usr/share/webapps/:/etc/webapps/) in Unknown on line 0
[Sat Nov 21 17:16:04.822999 2015] [:error] [pid 22] [client 192.168.33.1:57430] PHP Warning:  Unknown: failed to open stream: Operation not permitted in Unknown on line 0
[Sat Nov 21 17:16:04.823161 2015] [:error] [pid 22] [client 192.168.33.1:57430] PHP Fatal error:  Unknown: Failed opening required '/var/www/html/info.php' (include_path='.:/usr/share/pear') in Unknown on line 0
AH00558: apache2: Could not reliably determine the server's fully qualified domain name, using 172.17.0.2. Set the 'ServerName' directive globally to suppress this message
[Sat Nov 21 17:17:37.232067 2015] [mpm_prefork:notice] [pid 22] AH00163: Apache/2.4.10 (Debian) PHP/5.6.15 configured -- resuming normal operations
[Sat Nov 21 17:17:37.232403 2015] [core:notice] [pid 22] AH00094: Command line: '/usr/sbin/apache2 -D FOREGROUND'
AH00558: apache2: Could not reliably determine the server's fully qualified domain name, using 172.17.0.2. Set the 'ServerName' directive globally to suppress this message
PHP Warning:  PHP Startup: Unable to load dynamic library '/usr/local/lib/php/extensions/no-debug-non-zts-20131226/mysqli.so' - /usr/local/lib/php/extensions/no-debug-non-zts-20131226/mysqli.so: cannot open shared object file: No such file or directory in Unknown on line 0
PHP Warning:  PHP Startup: Unable to load dynamic library '/usr/local/lib/php/extensions/no-debug-non-zts-20131226/mysql.so' - /usr/local/lib/php/extensions/no-debug-non-zts-20131226/mysql.so: cannot open shared object file: No such file or directory in Unknown on line 0
[Sat Nov 21 17:29:41.212832 2015] [mpm_prefork:notice] [pid 22] AH00163: Apache/2.4.10 (Debian) PHP/5.6.15 configured -- resuming normal operations
[Sat Nov 21 17:29:41.213129 2015] [core:notice] [pid 22] AH00094: Command line: '/usr/sbin/apache2 -D FOREGROUND'
AH00558: apache2: Could not reliably determine the server's fully qualified domain name, using 172.17.0.2. Set the 'ServerName' directive globally to suppress this message
PHP Warning:  PHP Startup: Unable to load dynamic library '/usr/local/lib/php/extensions/no-debug-non-zts-20131226/mysqli.so' - /usr/local/lib/php/extensions/no-debug-non-zts-20131226/mysqli.so: cannot open shared object file: No such file or directory in Unknown on line 0
PHP Warning:  PHP Startup: Unable to load dynamic library '/usr/local/lib/php/extensions/no-debug-non-zts-20131226/mysql.so' - /usr/local/lib/php/extensions/no-debug-non-zts-20131226/mysql.so: cannot open shared object file: No such file or directory in Unknown on line 0
PHP Warning:  PHP Startup: Unable to load dynamic library '/usr/local/lib/php/extensions/no-debug-non-zts-20131226/mysqlnd.so' - /usr/local/lib/php/extensions/no-debug-non-zts-20131226/mysqlnd.so: cannot open shared object file: No such file or directory in Unknown on line 0
PHP Warning:  PHP Startup: Unable to load dynamic library '/usr/local/lib/php/extensions/no-debug-non-zts-20131226/php_mysql.dll' - /usr/local/lib/php/extensions/no-debug-non-zts-20131226/php_mysql.dll: cannot open shared object file: No such file or directory in Unknown on line 0
[Sat Nov 21 18:03:23.212047 2015] [core:warn] [pid 18] AH00098: pid file /var/run/apache2/apache2.pid overwritten -- Unclean shutdown of previous Apache run?
[Sat Nov 21 18:03:23.228761 2015] [mpm_prefork:notice] [pid 18] AH00163: Apache/2.4.10 (Debian) PHP/5.6.15 configured -- resuming normal operations
[Sat Nov 21 18:03:23.233322 2015] [core:notice] [pid 18] AH00094: Command line: '/usr/sbin/apache2 -D FOREGROUND'
